{
  "project_info": {
    "project_number": "672193579720",
    "project_id": "bhimadoctor",
    "storage_bucket": "bhimadoctor.appspot.com"
  },
  "client": [
    {
      "client_info": {
        "mobilesdk_app_id": "1:672193579720:android:862c080860bb76df40f3fd",
        "android_client_info": {
          "package_name": "com.bhima.doctor"
        }
      },
      "oauth_client": [
        {
          "client_id": "672193579720-j9ukgjg7g55es07qmnnsl91o2k95uobd.apps.googleusercontent.com",
          "client_type": 1,
          "android_info": {
            "package_name": "com.bhima.doctor",
            "certificate_hash": "d652c60f9639796c11d8bbefe9db7cd9f6971668"
          }
        },
        {
          "client_id": "672193579720-ch9p0gdnl7i8hknssu6brqdk09vdg109.apps.googleusercontent.com",
          "client_type": 3
        }
      ],
      "api_key": [
        {
          "current_key": "AIzaSyB436SxnPKdtcm59xUlg-aZllSzhF7XhdU"
        }
      ],
      "services": {
        "appinvite_service": {
          "other_platform_oauth_client": [
            {
              "client_id": "672193579720-ch9p0gdnl7i8hknssu6brqdk09vdg109.apps.googleusercontent.com",
              "client_type": 3
            }
          ]
        }
      }
    }
  ],
  "configuration_version": "1"
}